ModuleCmd_Switch.c(172):ERROR:152: Module 'PrgEnv-intel/5.2.56' is currently not loaded
Level 1 domain size (m)    1e+04 x    1e+04 x    1e+03, num elements 256 x 256 x 31 (2031616), size (m) 39.0625 x 39.0625 x 33.3333
Level 0 domain size (m)    1e+04 x    1e+04 x    1e+03, num elements 128 x 128 x 16 (262144), size (m) 78.125 x 78.125 x 66.6667
Solution statistics after solve: Full
CONVERGED_FNORM_RELATIVE: Number of SNES iterations = 8, total linear iterations = 78
|X|_2 24113.5   -1.08012e-14 <= u <=  24.612   -3.1206 <= v <=  3.1206   4.75162e-18 <= c <=  24.612 
Surface statistics: u in [1.223840e+01, 2.461203e+01] mean 2.022397e+01
Global eta range   2.788e+10 to 9.2273e+12 converged range 2.788e+10 to 6.51549e+12
Global beta2 range 1e+100 to 0. converged range 1e+100 to 0.
	Wall-clock time: 8.379e+00 seconds
	Degrees-of-freedom: 4063232
	FLOPS: 5.920e+11
	L1 misses: 9.127e+10
	Intensity: 6.487e+00
	Rate: 4.849e+05
srun: Job step creation temporarily disabled, retrying
srun: Job step created
Level 2 domain size (m)    1e+04 x    1e+04 x    1e+03, num elements 512 x 512 x 61 (15990784), size (m) 19.5312 x 19.5312 x 16.6667
Level 1 domain size (m)    1e+04 x    1e+04 x    1e+03, num elements 256 x 256 x 31 (2031616), size (m) 39.0625 x 39.0625 x 33.3333
Level 0 domain size (m)    1e+04 x    1e+04 x    1e+03, num elements 128 x 128 x 16 (262144), size (m) 78.125 x 78.125 x 66.6667
Solution statistics after solve: Full
CONVERGED_FNORM_RELATIVE: Number of SNES iterations = 8, total linear iterations = 78
|X|_2 67816.1   -9.5938e-16 <= u <=  24.6198   -3.12189 <= v <=  3.12189   2.50142e-19 <= c <=  24.6198 
Surface statistics: u in [1.224314e+01, 2.461984e+01] mean 2.023047e+01
Global eta range   2.73237e+10 to 9.2273e+12 converged range 2.73237e+10 to 8.33976e+12
Global beta2 range 1e+100 to 0. converged range 1e+100 to 0.
	Wall-clock time: 1.387e+01 seconds
	Degrees-of-freedom: 31981568
	FLOPS: 4.920e+12
	L1 misses: 6.568e+11
	Intensity: 7.491e+00
	Rate: 2.306e+06
srun: Job step creation temporarily disabled, retrying
srun: Job step created
Level 3 domain size (m)    1e+04 x    1e+04 x    1e+03, num elements 1024 x 1024 x 121 (126877696), size (m) 9.76562 x 9.76562 x 8.33333
Level 2 domain size (m)    1e+04 x    1e+04 x    1e+03, num elements 512 x 512 x 61 (15990784), size (m) 19.5312 x 19.5312 x 16.6667
Level 1 domain size (m)    1e+04 x    1e+04 x    1e+03, num elements 256 x 256 x 31 (2031616), size (m) 39.0625 x 39.0625 x 33.3333
Level 0 domain size (m)    1e+04 x    1e+04 x    1e+03, num elements 128 x 128 x 16 (262144), size (m) 78.125 x 78.125 x 66.6667
Solution statistics after solve: Full
CONVERGED_FNORM_RELATIVE: Number of SNES iterations = 8, total linear iterations = 78
|X|_2 191249.   -8.98793e-16 <= u <=  24.6218   -3.12221 <= v <=  3.12221   2.37801e-20 <= c <=  24.6218 
Surface statistics: u in [1.224435e+01, 2.462179e+01] mean 2.023209e+01
Global eta range   2.70483e+10 to 9.2273e+12 converged range 2.70483e+10 to 8.95961e+12
Global beta2 range 1e+100 to 0. converged range 1e+100 to 0.
	Wall-clock time: 7.247e+01 seconds
	Degrees-of-freedom: 253755392
	FLOPS: 4.047e+13
	L1 misses: 5.242e+12
	Intensity: 7.720e+00
	Rate: 3.502e+06
Level 4 domain size (m)    1e+04 x    1e+04 x    1e+03, num elements 2048 x 2048 x 241 (1010827264), size (m) 4.88281 x 4.88281 x 4.16667
Level 3 domain size (m)    1e+04 x    1e+04 x    1e+03, num elements 1024 x 1024 x 121 (126877696), size (m) 9.76562 x 9.76562 x 8.33333
Level 2 domain size (m)    1e+04 x    1e+04 x    1e+03, num elements 512 x 512 x 61 (15990784), size (m) 19.5312 x 19.5312 x 16.6667
Level 1 domain size (m)    1e+04 x    1e+04 x    1e+03, num elements 256 x 256 x 31 (2031616), size (m) 39.0625 x 39.0625 x 33.3333
Level 0 domain size (m)    1e+04 x    1e+04 x    1e+03, num elements 128 x 128 x 16 (262144), size (m) 78.125 x 78.125 x 66.6667
Solution statistics after solve: Full
CONVERGED_FNORM_RELATIVE: Number of SNES iterations = 8, total linear iterations = 78
|X|_2 540127.   -7.27574e-16 <= u <=  24.6223   -3.1223 <= v <=  3.1223   1.8189e-20 <= c <=  24.6223 
Surface statistics: u in [1.224465e+01, 2.462228e+01] mean 2.023250e+01
Global eta range   2.69112e+10 to 9.2273e+12 converged range 2.69112e+10 to 9.17102e+12
Global beta2 range 1e+100 to 0. converged range 1e+100 to 0.
	Wall-clock time: 5.182e+02 seconds
	Degrees-of-freedom: 2021654528
	FLOPS: 3.286e+14
	L1 misses: 4.184e+13
	Intensity: 7.854e+00
	Rate: 3.901e+06
