ModuleCmd_Switch.c(172):ERROR:152: Module 'PrgEnv-intel/5.2.56' is currently not loaded
Level 0 domain size (m)    1e+04 x    1e+04 x    1e+03, num elements 128 x 128 x 12 (196608), size (m) 78.125 x 78.125 x 90.9091
Solution statistics after solve: Full
CONVERGED_FNORM_RELATIVE: Number of SNES iterations = 8, total linear iterations = 48
|X|_2 7430.94   0. <= u <=  24.547   -3.11197 <= v <=  3.11197   0. <= c <=  24.547 
Surface statistics: u in [1.219103e+01, 2.454701e+01] mean 2.016713e+01
Global eta range   2.98603e+10 to 9.2273e+12 converged range 2.98603e+10 to 3.39798e+12
Global beta2 range 1e+100 to 0. converged range 1e+100 to 0.
	Wall-clock time: 7.800e+00 seconds
	Degrees-of-freedom: 393216
	FLOPS: 1.386e+11
	L1 misses: 3.145e+10
	Intensity: 4.408e+00
	Rate: 5.041e+04
srun: Job step creation temporarily disabled, retrying
srun: Job step created
Level 1 domain size (m)    1e+04 x    1e+04 x    1e+03, num elements 256 x 256 x 23 (1507328), size (m) 39.0625 x 39.0625 x 45.4545
Level 0 domain size (m)    1e+04 x    1e+04 x    1e+03, num elements 128 x 128 x 12 (196608), size (m) 78.125 x 78.125 x 90.9091
Solution statistics after solve: Full
CONVERGED_FNORM_RELATIVE: Number of SNES iterations = 8, total linear iterations = 85
|X|_2 20731.8   -3.87587e-14 <= u <=  24.6035   -3.1197 <= v <=  3.1197   2.74812e-17 <= c <=  24.6035 
Surface statistics: u in [1.223143e+01, 2.460351e+01] mean 2.021626e+01
Global eta range   2.82862e+10 to 9.2273e+12 converged range 2.82862e+10 to 5.79758e+12
Global beta2 range 1e+100 to 0. converged range 1e+100 to 0.
	Wall-clock time: 9.917e+00 seconds
	Degrees-of-freedom: 3014656
	FLOPS: 4.653e+11
	L1 misses: 6.712e+10
	Intensity: 6.933e+00
	Rate: 3.040e+05
srun: Job step creation temporarily disabled, retrying
srun: Job step created
Level 2 domain size (m)    1e+04 x    1e+04 x    1e+03, num elements 512 x 512 x 45 (11796480), size (m) 19.5312 x 19.5312 x 22.7273
Level 1 domain size (m)    1e+04 x    1e+04 x    1e+03, num elements 256 x 256 x 23 (1507328), size (m) 39.0625 x 39.0625 x 45.4545
Level 0 domain size (m)    1e+04 x    1e+04 x    1e+03, num elements 128 x 128 x 12 (196608), size (m) 78.125 x 78.125 x 90.9091
Solution statistics after solve: Full
CONVERGED_FNORM_RELATIVE: Number of SNES iterations = 8, total linear iterations = 85
|X|_2 58196.1   -1.01274e-14 <= u <=  24.6177   -3.12166 <= v <=  3.12166   1.33207e-18 <= c <=  24.6177 
Surface statistics: u in [1.224140e+01, 2.461770e+01] mean 2.022854e+01
Global eta range   2.75236e+10 to 9.2273e+12 converged range 2.75236e+10 to 7.95481e+12
Global beta2 range 1e+100 to 0. converged range 1e+100 to 0.
	Wall-clock time: 2.037e+01 seconds
	Degrees-of-freedom: 23592960
	FLOPS: 3.872e+12
	L1 misses: 4.724e+11
	Intensity: 8.195e+00
	Rate: 1.158e+06
srun: Job step creation temporarily disabled, retrying
srun: Job step created
Level 3 domain size (m)    1e+04 x    1e+04 x    1e+03, num elements 1024 x 1024 x 89 (93323264), size (m) 9.76562 x 9.76562 x 11.3636
Level 2 domain size (m)    1e+04 x    1e+04 x    1e+03, num elements 512 x 512 x 45 (11796480), size (m) 19.5312 x 19.5312 x 22.7273
Level 1 domain size (m)    1e+04 x    1e+04 x    1e+03, num elements 256 x 256 x 23 (1507328), size (m) 39.0625 x 39.0625 x 45.4545
Level 0 domain size (m)    1e+04 x    1e+04 x    1e+03, num elements 128 x 128 x 12 (196608), size (m) 78.125 x 78.125 x 90.9091
Solution statistics after solve: Full
CONVERGED_FNORM_RELATIVE: Number of SNES iterations = 8, total linear iterations = 85
|X|_2 163953.   -4.87604e-16 <= u <=  24.6213   -3.12216 <= v <=  3.12216   4.17657e-20 <= c <=  24.6213 
Surface statistics: u in [1.224391e+01, 2.462126e+01] mean 2.023161e+01
Global eta range   2.71475e+10 to 9.2273e+12 converged range 2.71475e+10 to 8.84074e+12
Global beta2 range 1e+100 to 0. converged range 1e+100 to 0.
	Wall-clock time: 1.140e+02 seconds
	Degrees-of-freedom: 186646528
	FLOPS: 3.182e+13
	L1 misses: 3.772e+12
	Intensity: 8.436e+00
	Rate: 1.638e+06
