Level 1 domain size (m)    1e+04 x    1e+04 x    1e+03, num elements 256 x 256 x 23 (1507328), size (m) 39.0625 x 39.0625 x 45.4545
Level 0 domain size (m)    1e+04 x    1e+04 x    1e+03, num elements 128 x 128 x 12 (196608), size (m) 78.125 x 78.125 x 90.9091
Solution statistics after solve: Full
CONVERGED_FNORM_RELATIVE: Number of SNES iterations = 8, total linear iterations = 87
|X|_2 20731.8   -8.44169e-14 <= u <=  24.6035   -3.1197 <= v <=  3.1197   1.86071e-17 <= c <=  24.6035 
Surface statistics: u in [1.223143e+01, 2.460351e+01] mean 2.021626e+01
Global eta range   2.84457e+10 to 9.2273e+12 converged range 2.84457e+10 to 5.65417e+12
Global beta2 range 1e+100 to 0. converged range 1e+100 to 0.
	Wall-clock time: 1.487e+01 seconds
	Degrees-of-freedom: 3014656
	FLOPS: 3.332e+11
	L1 misses: 3.505e+11
	Intensity: 9.507e-01
	Rate: 2.027e+05
Level 2 domain size (m)    1e+04 x    1e+04 x    1e+03, num elements 512 x 512 x 45 (11796480), size (m) 19.5312 x 19.5312 x 22.7273
Level 1 domain size (m)    1e+04 x    1e+04 x    1e+03, num elements 256 x 256 x 23 (1507328), size (m) 39.0625 x 39.0625 x 45.4545
Level 0 domain size (m)    1e+04 x    1e+04 x    1e+03, num elements 128 x 128 x 12 (196608), size (m) 78.125 x 78.125 x 90.9091
Solution statistics after solve: Full
CONVERGED_FNORM_RELATIVE: Number of SNES iterations = 8, total linear iterations = 85
|X|_2 58196.1   -2.8132e-14 <= u <=  24.6177   -3.12166 <= v <=  3.12166   3.22377e-18 <= c <=  24.6177 
Surface statistics: u in [1.224140e+01, 2.461770e+01] mean 2.022854e+01
Global eta range   2.76758e+10 to 9.2273e+12 converged range 2.76758e+10 to 7.95481e+12
Global beta2 range 1e+100 to 0. converged range 1e+100 to 0.
	Wall-clock time: 1.633e+01 seconds
	Degrees-of-freedom: 23592960
	FLOPS: 3.171e+12
	L1 misses: 5.591e+11
	Intensity: 5.672e+00
	Rate: 1.445e+06
Level 3 domain size (m)    1e+04 x    1e+04 x    1e+03, num elements 1024 x 1024 x 89 (93323264), size (m) 9.76562 x 9.76562 x 11.3636
Level 2 domain size (m)    1e+04 x    1e+04 x    1e+03, num elements 512 x 512 x 45 (11796480), size (m) 19.5312 x 19.5312 x 22.7273
Level 1 domain size (m)    1e+04 x    1e+04 x    1e+03, num elements 256 x 256 x 23 (1507328), size (m) 39.0625 x 39.0625 x 45.4545
Level 0 domain size (m)    1e+04 x    1e+04 x    1e+03, num elements 128 x 128 x 12 (196608), size (m) 78.125 x 78.125 x 90.9091
Solution statistics after solve: Full
CONVERGED_FNORM_RELATIVE: Number of SNES iterations = 8, total linear iterations = 84
|X|_2 163953.   -1.74438e-14 <= u <=  24.6213   -3.12216 <= v <=  3.12216   4.4921e-19 <= c <=  24.6213 
Surface statistics: u in [1.224391e+01, 2.462126e+01] mean 2.023161e+01
Global eta range   2.72957e+10 to 9.2273e+12 converged range 2.72957e+10 to 8.84074e+12
Global beta2 range 1e+100 to 0. converged range 1e+100 to 0.
	Wall-clock time: 2.373e+01 seconds
	Degrees-of-freedom: 186646528
	FLOPS: 2.848e+13
	L1 misses: 1.620e+12
	Intensity: 1.757e+01
	Rate: 7.866e+06
Level 4 domain size (m)    1e+04 x    1e+04 x    1e+03, num elements 2048 x 2048 x 177 (742391808), size (m) 4.88281 x 4.88281 x 5.68182
Level 3 domain size (m)    1e+04 x    1e+04 x    1e+03, num elements 1024 x 1024 x 89 (93323264), size (m) 9.76562 x 9.76562 x 11.3636
Level 2 domain size (m)    1e+04 x    1e+04 x    1e+03, num elements 512 x 512 x 45 (11796480), size (m) 19.5312 x 19.5312 x 22.7273
Level 1 domain size (m)    1e+04 x    1e+04 x    1e+03, num elements 256 x 256 x 23 (1507328), size (m) 39.0625 x 39.0625 x 45.4545
Level 0 domain size (m)    1e+04 x    1e+04 x    1e+03, num elements 128 x 128 x 12 (196608), size (m) 78.125 x 78.125 x 90.9091
Solution statistics after solve: Full
CONVERGED_FNORM_RELATIVE: Number of SNES iterations = 8, total linear iterations = 84
|X|_2 462789.   -5.39192e-15 <= u <=  24.6221   -3.12229 <= v <=  3.12229   1.2265e-19 <= c <=  24.6221 
Surface statistics: u in [1.224454e+01, 2.462215e+01] mean 2.023238e+01
Global eta range   2.71068e+10 to 9.2273e+12 converged range 2.71068e+10 to 9.12899e+12
Global beta2 range 1e+100 to 0. converged range 1e+100 to 0.
	Wall-clock time: 7.916e+01 seconds
	Degrees-of-freedom: 1484783616
	FLOPS: 2.431e+14
	L1 misses: 7.110e+12
	Intensity: 3.419e+01
	Rate: 1.876e+07
