Level 1 domain size (m)    1e+04 x    1e+04 x    1e+03, num elements 256 x 256 x 23 (1507328), size (m) 39.0625 x 39.0625 x 45.4545
Level 0 domain size (m)    1e+04 x    1e+04 x    1e+03, num elements 128 x 128 x 12 (196608), size (m) 78.125 x 78.125 x 90.9091
Solution statistics after solve: Full
CONVERGED_FNORM_RELATIVE: Number of SNES iterations = 8, total linear iterations = 85
|X|_2 20731.8   -3.87587e-14 <= u <=  24.6035   -3.1197 <= v <=  3.1197   2.74813e-17 <= c <=  24.6035 
Surface statistics: u in [1.223143e+01, 2.460351e+01] mean 2.021626e+01
Global eta range   2.82862e+10 to 9.2273e+12 converged range 2.82862e+10 to 5.79758e+12
Global beta2 range 1e+100 to 0. converged range 1e+100 to 0.
	Wall-clock time: 5.844e+00 seconds
	Degrees-of-freedom: 3014656
	FLOPS: 4.653e+11
	L1 misses: 3.106e+10
	Intensity: 1.498e+01
	Rate: 5.159e+05
Level 2 domain size (m)    1e+04 x    1e+04 x    1e+03, num elements 512 x 512 x 45 (11796480), size (m) 19.5312 x 19.5312 x 22.7273
Level 1 domain size (m)    1e+04 x    1e+04 x    1e+03, num elements 256 x 256 x 23 (1507328), size (m) 39.0625 x 39.0625 x 45.4545
Level 0 domain size (m)    1e+04 x    1e+04 x    1e+03, num elements 128 x 128 x 12 (196608), size (m) 78.125 x 78.125 x 90.9091
Solution statistics after solve: Full
CONVERGED_FNORM_RELATIVE: Number of SNES iterations = 8, total linear iterations = 85
|X|_2 58196.1   -1.01274e-14 <= u <=  24.6177   -3.12166 <= v <=  3.12166   1.33253e-18 <= c <=  24.6177 
Surface statistics: u in [1.224140e+01, 2.461770e+01] mean 2.022854e+01
Global eta range   2.75236e+10 to 9.2273e+12 converged range 2.75236e+10 to 7.95481e+12
Global beta2 range 1e+100 to 0. converged range 1e+100 to 0.
	Wall-clock time: 1.786e+01 seconds
	Degrees-of-freedom: 23592960
	FLOPS: 3.872e+12
	L1 misses: 1.829e+11
	Intensity: 2.117e+01
	Rate: 1.321e+06
Level 3 domain size (m)    1e+04 x    1e+04 x    1e+03, num elements 1024 x 1024 x 89 (93323264), size (m) 9.76562 x 9.76562 x 11.3636
Level 2 domain size (m)    1e+04 x    1e+04 x    1e+03, num elements 512 x 512 x 45 (11796480), size (m) 19.5312 x 19.5312 x 22.7273
Level 1 domain size (m)    1e+04 x    1e+04 x    1e+03, num elements 256 x 256 x 23 (1507328), size (m) 39.0625 x 39.0625 x 45.4545
Level 0 domain size (m)    1e+04 x    1e+04 x    1e+03, num elements 128 x 128 x 12 (196608), size (m) 78.125 x 78.125 x 90.9091
Solution statistics after solve: Full
CONVERGED_FNORM_RELATIVE: Number of SNES iterations = 8, total linear iterations = 85
|X|_2 163953.   -4.87604e-16 <= u <=  24.6213   -3.12216 <= v <=  3.12216   4.17442e-20 <= c <=  24.6213 
Surface statistics: u in [1.224391e+01, 2.462126e+01] mean 2.023161e+01
Global eta range   2.71475e+10 to 9.2273e+12 converged range 2.71475e+10 to 8.84074e+12
Global beta2 range 1e+100 to 0. converged range 1e+100 to 0.
	Wall-clock time: 1.161e+02 seconds
	Degrees-of-freedom: 186646528
	FLOPS: 3.182e+13
	L1 misses: 8.484e+11
	Intensity: 3.751e+01
	Rate: 1.607e+06
Level 4 domain size (m)    1e+04 x    1e+04 x    1e+03, num elements 2048 x 2048 x 177 (742391808), size (m) 4.88281 x 4.88281 x 5.68182
Level 3 domain size (m)    1e+04 x    1e+04 x    1e+03, num elements 1024 x 1024 x 89 (93323264), size (m) 9.76562 x 9.76562 x 11.3636
Level 2 domain size (m)    1e+04 x    1e+04 x    1e+03, num elements 512 x 512 x 45 (11796480), size (m) 19.5312 x 19.5312 x 22.7273
Level 1 domain size (m)    1e+04 x    1e+04 x    1e+03, num elements 256 x 256 x 23 (1507328), size (m) 39.0625 x 39.0625 x 45.4545
Level 0 domain size (m)    1e+04 x    1e+04 x    1e+03, num elements 128 x 128 x 12 (196608), size (m) 78.125 x 78.125 x 90.9091
slurmstepd: error: Step 4417466.3 exceeded memory limit (97083352 > 94371840), being killed
slurmstepd: error: Step 4417466.3 exceeded memory limit (97055260 > 94371840), being killed
slurmstepd: error: Step 4417466.3 exceeded memory limit (97087000 > 94371840), being killed
slurmstepd: error: Step 4417466.3 exceeded memory limit (97065544 > 94371840), being killed
srun: Job step aborted: Waiting up to 32 seconds for job step to finish.
slurmstepd: error: *** STEP 4417466.3 ON nid10110 CANCELLED AT 2017-04-05T01:00:28 ***
slurmstepd: error: Exceeded job memory limit
slurmstepd: error: Exceeded job memory limit
slurmstepd: error: Exceeded job memory limit
slurmstepd: error: Exceeded job memory limit
srun: error: nid10239: task 647: Killed
srun: Terminating job step 4417466.3
srun: error: nid10153: task 268: Killed
srun: error: nid10243: task 844: Killed
srun: error: nid10157: task 527: Killed
srun: error: nid10241: task 727: Killed
srun: error: nid10155: task 396: Killed
srun: error: nid10244: task 908: Killed
srun: error: nid10152: task 199: Killed
srun: error: nid10111: task 68: Killed
srun: error: nid10245: task 975: Killed
srun: error: nid10150: task 151: Killed
srun: error: nid10242: task 772: Killed
srun: error: nid10154: task 324: Killed
srun: error: nid10110: task 15: Killed
srun: error: nid10156: task 455: Killed
srun: error: nid10162: task 580: Killed
srun: error: nid10162: task 581: Killed
srun: error: nid10111: task 67: Killed
srun: error: nid10239: task 660: Killed
srun: error: nid10245: task 966: Killed
srun: error: nid10244: task 917: Killed
srun: error: nid10152: task 223: Killed
srun: error: nid10157: task 516: Killed
srun: error: nid10153: task 259: Killed
srun: error: nid10155: task 399: Killed
srun: error: nid10150: task 147: Killed
srun: error: nid10243: task 836: Killed
srun: error: nid10242: task 787: Killed
srun: error: nid10153: task 279: Killed
srun: error: nid10155: task 395: Killed
srun: error: nid10244: task 907: Killed
srun: error: nid10150: task 131: Killed
srun: error: nid10110: task 5: Killed
srun: error: nid10154: task 323: Killed
srun: error: nid10244: task 911: Killed
srun: error: nid10153: task 267: Killed
srun: error: nid10245: tasks 960-965,967-974,976-1023: Killed
srun: error: nid10155: tasks 384-394,397-398,400-447: Killed
srun: error: nid10241: tasks 704-726,728-767: Killed
srun: error: nid10110: tasks 0-4,6-14,16-63: Killed
srun: error: nid10244: tasks 896-906,909-910,912-916,918-959: Killed
srun: error: nid10157: tasks 512-515,517-526,528-575: Killed
srun: error: nid10154: tasks 320-322,325-383: Killed
srun: error: nid10150: tasks 128-130,132-146,148-150,152-191: Killed
srun: error: nid10111: tasks 64-66,69-127: Killed
srun: error: nid10239: tasks 640-646,648-659,661-703: Killed
srun: error: nid10153: tasks 256-258,260-266,269-278,280-319: Killed
srun: error: nid10162: tasks 576-579,582-639: Killed
srun: error: nid10156: tasks 448-454,456-511: Killed
srun: error: nid10243: tasks 832-835,837-843,845-895: Killed
srun: error: nid10242: tasks 768-771,773-786,788-831: Killed
srun: error: nid10152: tasks 192-198,200-222,224-255: Killed
