===================
Trial 1
===================
Discretization: CG1
MPI processes 16: solving... 
  Linear fe_ solve converged due to CONVERGED_RTOL iterations 16
	Wall-clock time: 3.091901e+00 seconds
	FLOPS: 2.735324e+10
	FLOPS/s: 8.846737e+09
	L1 misses: 3.461314e+09
	L2 misses: 9.915626e+08
	L3 misses: 2.953647e+08
	Intensity: 7.902558e+00
	Intensity2: 2.758599e+01
	Intensity3: 9.260834e+01
	Rate: 5.729682e+05
Discretization: CG2
MPI processes 16: solving... 
  Linear fe_ solve converged due to CONVERGED_RTOL iterations 18
	Wall-clock time: 3.967753e+00 seconds
	FLOPS: 3.547579e+10
	FLOPS/s: 8.941029e+09
	L1 misses: 4.869424e+09
	L2 misses: 1.704724e+09
	L3 misses: 5.624459e+08
	Intensity: 7.285419e+00
	Intensity2: 2.081029e+01
	Intensity3: 6.307414e+01
	Rate: 4.464897e+05
Discretization: CG3
MPI processes 16: solving... 
  Linear fe_ solve converged due to CONVERGED_RTOL iterations 20
	Wall-clock time: 4.567790e+00 seconds
	FLOPS: 3.975099e+10
	FLOPS/s: 8.702456e+09
	L1 misses: 6.114956e+09
	L2 misses: 2.630452e+09
	L3 misses: 1.066664e+09
	Intensity: 6.500618e+00
	Intensity2: 1.511185e+01
	Intensity3: 3.726666e+01
	Rate: 3.878377e+05
Discretization: DG1
MPI processes 16: solving... 
  Linear fe_ solve converged due to CONVERGED_RTOL iterations 12
	Wall-clock time: 1.841391e+00 seconds
	FLOPS: 1.307790e+10
	FLOPS/s: 7.102186e+09
	L1 misses: 2.303413e+09
	L2 misses: 8.346351e+08
	L3 misses: 2.891790e+08
	Intensity: 5.677619e+00
	Intensity2: 1.566901e+01
	Intensity3: 4.522424e+01
	Rate: 8.341520e+05
Discretization: DG2
MPI processes 16: solving... 
  Linear fe_ solve converged due to CONVERGED_RTOL iterations 23
	Wall-clock time: 4.064856e+00 seconds
	FLOPS: 4.348882e+10
	FLOPS/s: 1.069874e+10
	L1 misses: 5.773708e+09
	L2 misses: 2.464254e+09
	L3 misses: 1.126306e+09
	Intensity: 7.532217e+00
	Intensity2: 1.764786e+01
	Intensity3: 3.861192e+01
	Rate: 3.985381e+05
Discretization: CG1
MPI processes 16: solving... 
  Linear fe_ solve converged due to CONVERGED_RTOL iterations 15
	Wall-clock time: 9.298379e-01 seconds
	FLOPS: 7.990319e+09
	FLOPS/s: 8.593238e+09
	L1 misses: 9.176767e+08
	L2 misses: 2.183024e+08
	L3 misses: 4.804825e+07
	Intensity: 8.707117e+00
	Intensity2: 3.660207e+01
	Intensity3: 1.662978e+02
	Rate: 5.715415e+05
Discretization: CG2
MPI processes 16: solving... 
  Linear fe_ solve converged due to CONVERGED_RTOL iterations 19
	Wall-clock time: 9.342922e+00 seconds
	FLOPS: 8.532079e+10
	FLOPS/s: 9.132131e+09
	L1 misses: 1.246633e+10
	L2 misses: 4.735613e+09
	L3 misses: 1.640299e+09
	Intensity: 6.844101e+00
	Intensity2: 1.801684e+01
	Intensity3: 5.201539e+01
	Rate: 4.466784e+05
Discretization: CG3
MPI processes 16: solving... 
  Linear fe_ solve converged due to CONVERGED_RTOL iterations 23
	Wall-clock time: 4.143989e+01 seconds
	FLOPS: 3.548743e+11
	FLOPS/s: 8.563593e+09
	L1 misses: 5.806429e+10
	L2 misses: 2.699872e+10
	L3 misses: 1.216083e+10
	Intensity: 6.111749e+00
	Intensity2: 1.314412e+01
	Intensity3: 2.918175e+01
	Rate: 3.377789e+05
Discretization: DG1
MPI processes 16: solving... 
  Linear fe_ solve converged due to CONVERGED_RTOL iterations 14
	Wall-clock time: 1.669481e+01 seconds
	FLOPS: 1.178779e+11
	FLOPS/s: 7.060748e+09
	L1 misses: 2.407056e+10
	L2 misses: 8.695210e+09
	L3 misses: 3.351077e+09
	Intensity: 4.897180e+00
	Intensity2: 1.355664e+01
	Intensity3: 3.517611e+01
	Rate: 7.360371e+05
Discretization: DG2
MPI processes 16: solving... 
  Linear fe_ solve converged due to CONVERGED_RTOL iterations 29
	Wall-clock time: 9.638585e+01 seconds
	FLOPS: 1.017355e+12
	FLOPS/s: 1.055502e+10
	L1 misses: 1.474478e+11
	L2 misses: 6.676129e+10
	L3 misses: 3.374962e+10
	Intensity: 6.899766e+00
	Intensity2: 1.523870e+01
	Intensity3: 3.014419e+01
	Rate: 3.187190e+05
===================
Trial 2
===================
Discretization: CG1
MPI processes 16: solving... 
  Linear fe_ solve converged due to CONVERGED_RTOL iterations 16
	Wall-clock time: 3.072216e+00 seconds
	FLOPS: 2.734779e+10
	FLOPS/s: 8.901650e+09
	L1 misses: 3.457697e+09
	L2 misses: 9.902811e+08
	L3 misses: 2.958420e+08
	Intensity: 7.909251e+00
	Intensity2: 2.761619e+01
	Intensity3: 9.244055e+01
	Rate: 5.766395e+05
Discretization: CG2
MPI processes 16: solving... 
  Linear fe_ solve converged due to CONVERGED_RTOL iterations 18
	Wall-clock time: 3.758472e+00 seconds
	FLOPS: 3.541659e+10
	FLOPS/s: 9.423135e+09
	L1 misses: 4.864827e+09
	L2 misses: 1.699161e+09
	L3 misses: 5.633336e+08
	Intensity: 7.280133e+00
	Intensity2: 2.084358e+01
	Intensity3: 6.286965e+01
	Rate: 4.713514e+05
Discretization: CG3
MPI processes 16: solving... 
  Linear fe_ solve converged due to CONVERGED_RTOL iterations 20
	Wall-clock time: 4.528134e+00 seconds
	FLOPS: 3.973049e+10
	FLOPS/s: 8.774142e+09
	L1 misses: 6.114920e+09
	L2 misses: 2.631374e+09
	L3 misses: 1.065638e+09
	Intensity: 6.497303e+00
	Intensity2: 1.509876e+01
	Intensity3: 3.728330e+01
	Rate: 3.912342e+05
Discretization: DG1
MPI processes 16: solving... 
  Linear fe_ solve converged due to CONVERGED_RTOL iterations 12
	Wall-clock time: 1.703049e+00 seconds
	FLOPS: 1.303925e+10
	FLOPS/s: 7.656418e+09
	L1 misses: 2.300657e+09
	L2 misses: 8.331686e+08
	L3 misses: 2.868155e+08
	Intensity: 5.667623e+00
	Intensity2: 1.565020e+01
	Intensity3: 4.546216e+01
	Rate: 9.019118e+05
Discretization: DG2
MPI processes 16: solving... 
  Linear fe_ solve converged due to CONVERGED_RTOL iterations 23
	Wall-clock time: 4.054409e+00 seconds
	FLOPS: 4.347733e+10
	FLOPS/s: 1.072347e+10
	L1 misses: 5.773522e+09
	L2 misses: 2.466127e+09
	L3 misses: 1.125711e+09
	Intensity: 7.530469e+00
	Intensity2: 1.762980e+01
	Intensity3: 3.862211e+01
	Rate: 3.995650e+05
Discretization: CG1
MPI processes 16: solving... 
  Linear fe_ solve converged due to CONVERGED_RTOL iterations 15
	Wall-clock time: 1.018666e+00 seconds
	FLOPS: 8.023214e+09
	FLOPS/s: 7.876197e+09
	L1 misses: 9.187185e+08
	L2 misses: 2.175023e+08
	L3 misses: 4.818668e+07
	Intensity: 8.733049e+00
	Intensity2: 3.688794e+01
	Intensity3: 1.665027e+02
	Rate: 5.217029e+05
Discretization: CG2
MPI processes 16: solving... 
  Linear fe_ solve converged due to CONVERGED_RTOL iterations 19
	Wall-clock time: 9.404827e+00 seconds
	FLOPS: 8.536776e+10
	FLOPS/s: 9.077016e+09
	L1 misses: 1.247564e+10
	L2 misses: 4.733063e+09
	L3 misses: 1.639568e+09
	Intensity: 6.842759e+00
	Intensity2: 1.803647e+01
	Intensity3: 5.206723e+01
	Rate: 4.437382e+05
Discretization: CG3
MPI processes 16: solving... 
  Linear fe_ solve converged due to CONVERGED_RTOL iterations 23
	Wall-clock time: 4.129405e+01 seconds
	FLOPS: 3.547818e+11
	FLOPS/s: 8.591597e+09
	L1 misses: 5.805072e+10
	L2 misses: 2.704669e+10
	L3 misses: 1.215513e+10
	Intensity: 6.111584e+00
	Intensity2: 1.311739e+01
	Intensity3: 2.918782e+01
	Rate: 3.389719e+05
Discretization: DG1
MPI processes 16: solving... 
  Linear fe_ solve converged due to CONVERGED_RTOL iterations 14
	Wall-clock time: 1.665117e+01 seconds
	FLOPS: 1.178644e+11
	FLOPS/s: 7.078444e+09
	L1 misses: 2.411705e+10
	L2 misses: 8.704871e+09
	L3 misses: 3.337722e+09
	Intensity: 4.887179e+00
	Intensity2: 1.354005e+01
	Intensity3: 3.531281e+01
	Rate: 7.379663e+05
Discretization: DG2
MPI processes 16: solving... 
  Linear fe_ solve converged due to CONVERGED_RTOL iterations 29
	Wall-clock time: 9.649570e+01 seconds
	FLOPS: 1.017452e+12
	FLOPS/s: 1.054402e+10
	L1 misses: 1.475801e+11
	L2 misses: 6.664242e+10
	L3 misses: 3.373459e+10
	Intensity: 6.894236e+00
	Intensity2: 1.526734e+01
	Intensity3: 3.016050e+01
	Rate: 3.183561e+05
===================
Trial 3
===================
Discretization: CG1
MPI processes 16: solving... 
  Linear fe_ solve converged due to CONVERGED_RTOL iterations 16
	Wall-clock time: 3.077339e+00 seconds
	FLOPS: 2.734661e+10
	FLOPS/s: 8.886446e+09
	L1 misses: 3.457639e+09
	L2 misses: 9.913550e+08
	L3 misses: 2.960140e+08
	Intensity: 7.909042e+00
	Intensity2: 2.758508e+01
	Intensity3: 9.238283e+01
	Rate: 5.756795e+05
Discretization: CG2
MPI processes 16: solving... 
  Linear fe_ solve converged due to CONVERGED_RTOL iterations 18
	Wall-clock time: 3.726355e+00 seconds
	FLOPS: 3.539545e+10
	FLOPS/s: 9.498679e+09
	L1 misses: 4.867609e+09
	L2 misses: 1.700451e+09
	L3 misses: 5.640072e+08
	Intensity: 7.271630e+00
	Intensity2: 2.081533e+01
	Intensity3: 6.275709e+01
	Rate: 4.754139e+05
Discretization: CG3
MPI processes 16: solving... 
  Linear fe_ solve converged due to CONVERGED_RTOL iterations 20
	Wall-clock time: 4.566516e+00 seconds
	FLOPS: 3.974134e+10
	FLOPS/s: 8.702771e+09
	L1 misses: 6.114191e+09
	L2 misses: 2.627028e+09
	L3 misses: 1.064391e+09
	Intensity: 6.499853e+00
	Intensity2: 1.512787e+01
	Intensity3: 3.733716e+01
	Rate: 3.879459e+05
Discretization: DG1
MPI processes 16: solving... 
  Linear fe_ solve converged due to CONVERGED_RTOL iterations 12
	Wall-clock time: 1.727788e+00 seconds
	FLOPS: 1.304411e+10
	FLOPS/s: 7.549602e+09
	L1 misses: 2.300762e+09
	L2 misses: 8.332800e+08
	L3 misses: 2.883034e+08
	Intensity: 5.669475e+00
	Intensity2: 1.565394e+01
	Intensity3: 4.524439e+01
	Rate: 8.889980e+05
Discretization: DG2
MPI processes 16: solving... 
  Linear fe_ solve converged due to CONVERGED_RTOL iterations 23
	Wall-clock time: 3.994536e+00 seconds
	FLOPS: 4.346288e+10
	FLOPS/s: 1.088058e+10
	L1 misses: 5.772868e+09
	L2 misses: 2.470482e+09
	L3 misses: 1.127059e+09
	Intensity: 7.528821e+00
	Intensity2: 1.759288e+01
	Intensity3: 3.856310e+01
	Rate: 4.055540e+05
Discretization: CG1
MPI processes 16: solving... 
  Linear fe_ solve converged due to CONVERGED_RTOL iterations 15
	Wall-clock time: 9.510689e-01 seconds
	FLOPS: 8.002642e+09
	FLOPS/s: 8.414367e+09
	L1 misses: 9.180509e+08
	L2 misses: 2.175125e+08
	L3 misses: 4.781407e+07
	Intensity: 8.716992e+00
	Intensity2: 3.679165e+01
	Intensity3: 1.673700e+02
	Rate: 5.587829e+05
Discretization: CG2
MPI processes 16: solving... 
  Linear fe_ solve converged due to CONVERGED_RTOL iterations 19
	Wall-clock time: 9.458416e+00 seconds
	FLOPS: 8.538610e+10
	FLOPS/s: 9.027526e+09
	L1 misses: 1.246830e+10
	L2 misses: 4.731857e+09
	L3 misses: 1.639869e+09
	Intensity: 6.848254e+00
	Intensity2: 1.804495e+01
	Intensity3: 5.206886e+01
	Rate: 4.412241e+05
Discretization: CG3
MPI processes 16: solving... 
  Linear fe_ solve converged due to CONVERGED_RTOL iterations 23
	Wall-clock time: 4.161368e+01 seconds
	FLOPS: 3.548923e+11
	FLOPS/s: 8.528259e+09
	L1 misses: 5.811421e+10
	L2 misses: 2.700166e+10
	L3 misses: 1.215833e+10
	Intensity: 6.106807e+00
	Intensity2: 1.314335e+01
	Intensity3: 2.918923e+01
	Rate: 3.363682e+05
Discretization: DG1
MPI processes 16: solving... 
  Linear fe_ solve converged due to CONVERGED_RTOL iterations 14
	Wall-clock time: 1.663557e+01 seconds
	FLOPS: 1.178710e+11
	FLOPS/s: 7.085479e+09
	L1 misses: 2.411575e+10
	L2 misses: 8.709134e+09
	L3 misses: 3.334418e+09
	Intensity: 4.887719e+00
	Intensity2: 1.353418e+01
	Intensity3: 3.534980e+01
	Rate: 7.386581e+05
Discretization: DG2
MPI processes 16: solving... 
  Linear fe_ solve converged due to CONVERGED_RTOL iterations 29
	Wall-clock time: 9.633113e+01 seconds
	FLOPS: 1.017410e+12
	FLOPS/s: 1.056159e+10
	L1 misses: 1.474839e+11
	L2 misses: 6.671936e+10
	L3 misses: 3.371164e+10
	Intensity: 6.898449e+00
	Intensity2: 1.524910e+01
	Intensity3: 3.017978e+01
	Rate: 3.189000e+05
===================
Trial 4
===================
Discretization: CG1
MPI processes 16: solving... 
  Linear fe_ solve converged due to CONVERGED_RTOL iterations 16
	Wall-clock time: 3.081784e+00 seconds
	FLOPS: 2.732495e+10
	FLOPS/s: 8.866600e+09
	L1 misses: 3.462234e+09
	L2 misses: 9.932592e+08
	L3 misses: 2.953485e+08
	Intensity: 7.892287e+00
	Intensity2: 2.751039e+01
	Intensity3: 9.251764e+01
	Rate: 5.748492e+05
Discretization: CG2
MPI processes 16: solving... 
  Linear fe_ solve converged due to CONVERGED_RTOL iterations 18
	Wall-clock time: 3.737487e+00 seconds
	FLOPS: 3.540932e+10
	FLOPS/s: 9.474098e+09
	L1 misses: 4.866468e+09
	L2 misses: 1.701756e+09
	L3 misses: 5.619246e+08
	Intensity: 7.276184e+00
	Intensity2: 2.080752e+01
	Intensity3: 6.301435e+01
	Rate: 4.739979e+05
Discretization: CG3
MPI processes 16: solving... 
  Linear fe_ solve converged due to CONVERGED_RTOL iterations 20
	Wall-clock time: 4.544368e+00 seconds
	FLOPS: 3.974571e+10
	FLOPS/s: 8.746148e+09
	L1 misses: 6.112562e+09
	L2 misses: 2.623892e+09
	L3 misses: 1.066918e+09
	Intensity: 6.502301e+00
	Intensity2: 1.514762e+01
	Intensity3: 3.725282e+01
	Rate: 3.898366e+05
Discretization: DG1
MPI processes 16: solving... 
  Linear fe_ solve converged due to CONVERGED_RTOL iterations 12
	Wall-clock time: 1.730463e+00 seconds
	FLOPS: 1.304470e+10
	FLOPS/s: 7.538273e+09
	L1 misses: 2.302050e+09
	L2 misses: 8.353449e+08
	L3 misses: 2.890322e+08
	Intensity: 5.666559e+00
	Intensity2: 1.561595e+01
	Intensity3: 4.513236e+01
	Rate: 8.876237e+05
Discretization: DG2
MPI processes 16: solving... 
  Linear fe_ solve converged due to CONVERGED_RTOL iterations 23
	Wall-clock time: 4.025159e+00 seconds
	FLOPS: 4.347952e+10
	FLOPS/s: 1.080194e+10
	L1 misses: 5.772558e+09
	L2 misses: 2.469201e+09
	L3 misses: 1.126726e+09
	Intensity: 7.532106e+00
	Intensity2: 1.760874e+01
	Intensity3: 3.858924e+01
	Rate: 4.024686e+05
Discretization: CG1
MPI processes 16: solving... 
  Linear fe_ solve converged due to CONVERGED_RTOL iterations 15
	Wall-clock time: 9.428849e-01 seconds
	FLOPS: 7.990517e+09
	FLOPS/s: 8.474541e+09
	L1 misses: 9.175456e+08
	L2 misses: 2.179854e+08
	L3 misses: 4.777826e+07
	Intensity: 8.708577e+00
	Intensity2: 3.665621e+01
	Intensity3: 1.672417e+02
	Rate: 5.636329e+05
Discretization: CG2
MPI processes 16: solving... 
  Linear fe_ solve converged due to CONVERGED_RTOL iterations 19
	Wall-clock time: 9.405361e+00 seconds
	FLOPS: 8.536392e+10
	FLOPS/s: 9.076092e+09
	L1 misses: 1.248717e+10
	L2 misses: 4.740297e+09
	L3 misses: 1.640235e+09
	Intensity: 6.836128e+00
	Intensity2: 1.800814e+01
	Intensity3: 5.204370e+01
	Rate: 4.437130e+05
Discretization: CG3
MPI processes 16: solving... 
  Linear fe_ solve converged due to CONVERGED_RTOL iterations 23
	Wall-clock time: 4.135054e+01 seconds
	FLOPS: 3.548259e+11
	FLOPS/s: 8.580925e+09
	L1 misses: 5.812055e+10
	L2 misses: 2.700697e+10
	L3 misses: 1.215791e+10
	Intensity: 6.104999e+00
	Intensity2: 1.313831e+01
	Intensity3: 2.918476e+01
	Rate: 3.385088e+05
Discretization: DG1
MPI processes 16: solving... 
  Linear fe_ solve converged due to CONVERGED_RTOL iterations 14
	Wall-clock time: 1.655968e+01 seconds
	FLOPS: 1.178223e+11
	FLOPS/s: 7.115012e+09
	L1 misses: 2.411458e+10
	L2 misses: 8.699697e+09
	L3 misses: 3.343872e+09
	Intensity: 4.885939e+00
	Intensity2: 1.354327e+01
	Intensity3: 3.523530e+01
	Rate: 7.420432e+05
Discretization: DG2
MPI processes 16: solving... 
  Linear fe_ solve converged due to CONVERGED_RTOL iterations 29
	Wall-clock time: 9.588085e+01 seconds
	FLOPS: 1.016984e+12
	FLOPS/s: 1.060674e+10
	L1 misses: 1.474799e+11
	L2 misses: 6.662394e+10
	L3 misses: 3.379996e+10
	Intensity: 6.895741e+00
	Intensity2: 1.526454e+01
	Intensity3: 3.008831e+01
	Rate: 3.203976e+05
===================
Trial 5
===================
Discretization: CG1
MPI processes 16: solving... 
  Linear fe_ solve converged due to CONVERGED_RTOL iterations 16
	Wall-clock time: 3.071064e+00 seconds
	FLOPS: 2.734042e+10
	FLOPS/s: 8.902588e+09
	L1 misses: 3.459163e+09
	L2 misses: 9.915026e+08
	L3 misses: 2.948845e+08
	Intensity: 7.903767e+00
	Intensity2: 2.757473e+01
	Intensity3: 9.271569e+01
	Rate: 5.768558e+05
Discretization: CG2
MPI processes 16: solving... 
  Linear fe_ solve converged due to CONVERGED_RTOL iterations 18
	Wall-clock time: 3.764873e+00 seconds
	FLOPS: 3.540685e+10
	FLOPS/s: 9.404526e+09
	L1 misses: 4.867448e+09
	L2 misses: 1.702137e+09
	L3 misses: 5.621186e+08
	Intensity: 7.274211e+00
	Intensity2: 2.080140e+01
	Intensity3: 6.298821e+01
	Rate: 4.705500e+05
Discretization: CG3
MPI processes 16: solving... 
  Linear fe_ solve converged due to CONVERGED_RTOL iterations 20
	Wall-clock time: 4.566549e+00 seconds
	FLOPS: 3.974817e+10
	FLOPS/s: 8.704203e+09
	L1 misses: 6.111276e+09
	L2 misses: 2.630065e+09
	L3 misses: 1.067743e+09
	Intensity: 6.504071e+00
	Intensity2: 1.511300e+01
	Intensity3: 3.722636e+01
	Rate: 3.879431e+05
Discretization: DG1
MPI processes 16: solving... 
  Linear fe_ solve converged due to CONVERGED_RTOL iterations 12
	Wall-clock time: 1.697162e+00 seconds
	FLOPS: 1.303552e+10
	FLOPS/s: 7.680775e+09
	L1 misses: 2.300503e+09
	L2 misses: 8.339753e+08
	L3 misses: 2.871858e+08
	Intensity: 5.666377e+00
	Intensity2: 1.563058e+01
	Intensity3: 4.539054e+01
	Rate: 9.050402e+05
Discretization: DG2
MPI processes 16: solving... 
  Linear fe_ solve converged due to CONVERGED_RTOL iterations 23
	Wall-clock time: 3.992164e+00 seconds
	FLOPS: 4.345897e+10
	FLOPS/s: 1.088607e+10
	L1 misses: 5.774303e+09
	L2 misses: 2.471853e+09
	L3 misses: 1.125580e+09
	Intensity: 7.526271e+00
	Intensity2: 1.758153e+01
	Intensity3: 3.861028e+01
	Rate: 4.057949e+05
Discretization: CG1
MPI processes 16: solving... 
  Linear fe_ solve converged due to CONVERGED_RTOL iterations 15
	Wall-clock time: 9.528229e-01 seconds
	FLOPS: 8.002532e+09
	FLOPS/s: 8.398761e+09
	L1 misses: 9.183477e+08
	L2 misses: 2.177432e+08
	L3 misses: 4.805277e+07
	Intensity: 8.714054e+00
	Intensity2: 3.675216e+01
	Intensity3: 1.665363e+02
	Rate: 5.577542e+05
Discretization: CG2
MPI processes 16: solving... 
  Linear fe_ solve converged due to CONVERGED_RTOL iterations 19
	Wall-clock time: 9.385179e+00 seconds
	FLOPS: 8.537399e+10
	FLOPS/s: 9.096682e+09
	L1 misses: 1.248056e+10
	L2 misses: 4.731811e+09
	L3 misses: 1.640589e+09
	Intensity: 6.840560e+00
	Intensity2: 1.804256e+01
	Intensity3: 5.203862e+01
	Rate: 4.446672e+05
Discretization: CG3
MPI processes 16: solving... 
  Linear fe_ solve converged due to CONVERGED_RTOL iterations 23
	Wall-clock time: 4.145596e+01 seconds
	FLOPS: 3.549235e+11
	FLOPS/s: 8.561460e+09
	L1 misses: 5.805935e+10
	L2 misses: 2.702392e+10
	L3 misses: 1.214961e+10
	Intensity: 6.113115e+00
	Intensity2: 1.313368e+01
	Intensity3: 2.921274e+01
	Rate: 3.376480e+05
Discretization: DG1
MPI processes 16: solving... 
  Linear fe_ solve converged due to CONVERGED_RTOL iterations 14
	Wall-clock time: 1.661692e+01 seconds
	FLOPS: 1.178592e+11
	FLOPS/s: 7.092721e+09
	L1 misses: 2.409338e+10
	L2 misses: 8.698445e+09
	L3 misses: 3.340108e+09
	Intensity: 4.891766e+00
	Intensity2: 1.354945e+01
	Intensity3: 3.528603e+01
	Rate: 7.394872e+05
Discretization: DG2
MPI processes 16: solving... 
  Linear fe_ solve converged due to CONVERGED_RTOL iterations 29
	Wall-clock time: 9.646156e+01 seconds
	FLOPS: 1.017558e+12
	FLOPS/s: 1.054884e+10
	L1 misses: 1.474735e+11
	L2 misses: 6.687986e+10
	L3 misses: 3.369963e+10
	Intensity: 6.899935e+00
	Intensity2: 1.521471e+01
	Intensity3: 3.019492e+01
	Rate: 3.184688e+05
